cpu_simulation.vcd
$date
	Tue Jan 27 16:54:01 2026
$end
$version
	Icarus Verilog
$end
$timescale
	1ps
$end
$scope module tt_um_CPU_tb $end
$var wire 8 ! uo_out [7:0] $end
$var wire 8 " uio_out [7:0] $end
$var wire 8 # uio_oe [7:0] $end
$var wire 8 $ uio_in [7:0] $end
$var wire 1 % spi_sclk $end
$var wire 1 & spi_mosi $end
$var wire 1 ' spi_cs $end
$var reg 1 ( clk $end
$var reg 16 ) current_instruction [15:0] $end
$var reg 1 * ena $end
$var reg 1 + f_miso $end
$var reg 1 , flash_active $end
$var reg 8 - pass_count [7:0] $end
$var reg 1 . rst_n $end
$var reg 8 / test_count [7:0] $end
$var reg 8 0 ui_in [7:0] $end
$var integer 32 1 i [31:0] $end
$var integer 32 2 instr_count [31:0] $end
$scope function get_instruction $end
$var reg 16 3 addr [15:0] $end
$upscope $end
$scope module uut $end
$var wire 1 ( clk $end
$var wire 1 * ena $end
$var wire 1 . rst_n $end
$var wire 8 4 ui_in [7:0] $end
$var wire 8 5 uio_in [7:0] $end
$var wire 1 6 zero $end
$var wire 8 7 uo_out [7:0] $end
$var wire 8 8 uio_out [7:0] $end
$var wire 8 9 uio_oe [7:0] $end
$var wire 4 : stored_flags [3:0] $end
$var wire 1 ; spi_sck $end
$var wire 1 < spi_mosi $end
$var wire 1 = spi_cs $end
$var wire 1 > rst $end
$var wire 2 ? reg_write_src [1:0] $end
$var wire 8 @ reg_write_data [7:0] $end
$var wire 1 A reg_write $end
$var wire 8 B reg_data2 [7:0] $end
$var wire 8 C reg_data1 [7:0] $end
$var wire 16 D pc_current [15:0] $end
$var wire 1 E overflow $end
$var wire 1 F negative $end
$var wire 1 G mem_write $end
$var wire 1 H mem_ready $end
$var wire 1 I mem_read $end
$var wire 8 J mem_rdata [7:0] $end
$var wire 16 K instruction [15:0] $end
$var wire 1 L flag_write $end
$var wire 1 M carry $end
$var wire 4 N branch_type [3:0] $end
$var wire 16 O branch_target [15:0] $end
$var wire 1 P branch_taken $end
$var wire 16 Q branch_offset [15:0] $end
$var wire 1 R alu_src $end
$var wire 8 S alu_result [7:0] $end
$var wire 8 T alu_operand_b [7:0] $end
$var wire 4 U alu_op [3:0] $end
$var wire 8 V alu_immediate [7:0] $end
$var wire 3 W addr2_select [2:0] $end
$var wire 3 X addr1_select [2:0] $end
$var wire 1 Y _unused $end
$var reg 1 Z miso_sync $end
$scope module alu $end
$var wire 8 [ operand2 [7:0] $end
$var wire 4 \ operation [3:0] $end
$var wire 8 ] operand1 [7:0] $end
$var reg 8 ^ b_inv [7:0] $end
$var reg 1 M carry_flag $end
$var reg 1 _ cin $end
$var reg 1 F negative_flag $end
$var reg 1 E overflow_flag $end
$var reg 8 ` result [7:0] $end
$var reg 9 a tmp_result [8:0] $end
$var reg 1 6 zero_flag $end
$upscope $end
$scope module branch_unit $end
$var wire 4 b stored_flags [3:0] $end
$var wire 16 c pc_current [15:0] $end
$var wire 4 d branch_type [3:0] $end
$var wire 16 e branch_target [15:0] $end
$var wire 16 f branch_offset [15:0] $end
$var wire 2 g _unused_flags [1:0] $end
$var reg 1 P branch_taken $end
$upscope $end
$scope module cu $end
$var wire 4 h opcode [3:0] $end
$var wire 16 i instruction [15:0] $end
$var reg 3 j addr1_select [2:0] $end
$var reg 3 k addr2_select [2:0] $end
$var reg 8 l alu_immediate [7:0] $end
$var reg 4 m alu_operation [3:0] $end
$var reg 1 R alu_src $end
$var reg 16 n branch_offset [15:0] $end
$var reg 4 o branch_type [3:0] $end
$var reg 1 L flag_write $end
$var reg 1 p is_branch $end
$var reg 1 I mem_read $end
$var reg 1 G mem_write $end
$var reg 1 A reg_write $end
$var reg 2 q reg_write_src [1:0] $end
$upscope $end
$scope module data_mem $end
$var wire 8 r addr [7:0] $end
$var wire 1 ( clk $end
$var wire 1 I mem_read $end
$var wire 1 s mem_write $end
$var wire 8 t wdata [7:0] $end
$var reg 8 u rdata [7:0] $end
$var integer 32 v i [31:0] $end
$upscope $end
$scope module flag_reg $end
$var wire 1 ( clk $end
$var wire 4 w flags_alu [3:0] $end
$var wire 1 x rst $end
$var wire 1 y write $end
$var reg 4 z stored_flags [3:0] $end
$upscope $end
$scope module pc $end
$var wire 16 { branch_addr [15:0] $end
$var wire 1 P branch_en $end
$var wire 1 ( clk $end
$var wire 1 | rst $end
$var wire 1 H mem_ready $end
$var reg 16 } pc_current [15:0] $end
$upscope $end
$scope module program_mem $end
$var wire 16 ~ address [15:0] $end
$var wire 1 ( clk $end
$var wire 1 !" rst $end
$var wire 1 Z spi_miso $end
$var parameter 2 "" ADDR $end
$var parameter 2 #" CMD $end
$var parameter 2 $" DATA $end
$var parameter 2 %" IDLE $end
$var reg 16 &" addr_buf [15:0] $end
$var reg 5 '" bit_cnt [4:0] $end
$var reg 8 (" cmd_byte [7:0] $end
$var reg 16 )" data_buf [15:0] $end
$var reg 16 *" instruction [15:0] $end
$var reg 16 +" last_addr [15:0] $end
$var reg 1 H ready $end
$var reg 1 = spi_cs $end
$var reg 1 < spi_mosi $end
$var reg 1 ; spi_sck $end
$var reg 2 ," state [1:0] $end
$upscope $end
$scope module regfile $end
$var wire 3 -" addr1_r [2:0] $end
$var wire 3 ." addr2_r [2:0] $end
$var wire 3 /" addr_wr [2:0] $end
$var wire 1 ( clk $end
$var wire 8 0" data_wr [7:0] $end
$var wire 1 H enable $end
$var wire 1 1" rst $end
$var wire 1 A write_en $end
$var wire 8 2" out2_r [7:0] $end
$var wire 8 3" out1_r [7:0] $end
$var integer 32 4" i [31:0] $end
$upscope $end
$upscope $end
$scope task check_memory $end
$var reg 8 5" addr [7:0] $end
$var reg 8 6" expected [7:0] $end
$var reg 1600 7" test_name [1600:1] $end
$upscope $end
$scope task check_register $end
$var reg 8 8" expected [7:0] $end
$var reg 3 9" reg_num [2:0] $end
$var reg 1600 :" test_name [1600:1] $end
$upscope $end
$upscope $end
$enddefinitions $end
$comment Show the parameter values. $end
$dumpall
b0 %"
b11 $"
b1 #"
b10 ""
$end
#0
$dumpvars
bx :"
bx 9"
bx 8"
bx 7"
bx 6"
bx 5"
bx 4"
bx 3"
bx 2"
11"
bx 0"
bx /"
bx ."
bx -"
bx ,"
bx +"
bx *"
bx )"
bx ("
bx '"
bx &"
1!"
bx ~
bx }
1|
bx {
bx z
xy
1x
bx w
b100000000 v
b0 u
bx t
xs
bx r
bx q
xp
bx o
bx n
bx m
bx l
bx k
bx j
bx i
bx h
bx g
bx f
bx e
bx d
bx c
bx b
bx a
bx `
x_
bx ^
bx ]
bx \
bx [
xZ
0Y
bx X
bx W
bx V
bx U
bx T
bx S
xR
bx Q
xP
bx O
bx N
xM
xL
bx K
b0 J
xI
xH
xG
xF
xE
bx D
bx C
bx B
xA
bx @
bx ?
1>
x=
x<
x;
bx :
b1011 9
b0x0xx 8
bx 7
x6
b0z00 5
b0 4
bx 3
bx 2
bx 1
b0 0
b0 /
0.
b0 -
0,
0+
1*
bx )
0(
x'
x&
x%
b0z00 $
b1011 #
b0x0xx "
bx !
$end
#10000
b0 @
b0 0"
0F
16
b0 S
b0 `
b0 r
0_
b0 ^
0M
b1 w
0E
b0 a
b0 T
b0 [
0s
b0 h
b0 /"
b0 W
b0 k
b0 ."
b0 X
b0 j
b0 -"
b0 O
b0 e
b0 {
b0 Q
b0 f
b0 n
b0 N
b0 d
b0 o
0p
1L
b0 V
b0 l
0R
b0 U
b0 \
b0 m
0G
0I
b0 ?
b0 q
1A
0&
0%
1'
b0 C
b0 ]
b0 3"
b0 B
b0 t
b0 2"
0y
b0 !
b0 7
b0 g
0P
b0 )"
b0 &"
b0 ("
b0 '"
b0 K
b0 i
b0 *"
b1111111111111111 +"
0<
0;
b1 "
b1 8
1=
0H
b0 ,"
b0 D
b0 c
b0 }
b0 ~
b0 :
b0 b
b0 z
0Z
b1000 4"
1(
#20000
0(
#30000
b1000 4"
1(
#40000
0(
#50000
b1000 4"
1(
#60000
0(
#70000
b1000 4"
1(
#80000
0(
#90000
b1000 4"
1(
#100000
0x
01"
0|
0!"
0(
b0 1
b0 2
0>
1.
#110000
0'
zZ
b1 ,"
b11 ("
b0 "
b0 8
0=
b1 1
1(
#120000
0(
#130000
1%
b1000 "
b1000 8
1;
b10 1
1(
#140000
0(
#150000
0%
b1 '"
b110 ("
b0 "
b0 8
0;
b11 1
1(
#160000
0(
#170000
1%
b1000 "
b1000 8
1;
b100 1
1(
#180000
0(
#190000
0%
b10 '"
b1100 ("
b0 "
b0 8
0;
b101 1
1(
#200000
0(
#210000
1%
b1000 "
b1000 8
1;
b110 1
1(
#220000
0(
#230000
0%
b11 '"
b11000 ("
b0 "
b0 8
0;
b111 1
1(
#240000
0(
#250000
1%
b1000 "
b1000 8
1;
b1000 1
1(
#260000
0(
#270000
0%
b100 '"
b110000 ("
b0 "
b0 8
0;
b1001 1
1(
#280000
0(
#290000
1%
b1000 "
b1000 8
1;
b1010 1
1(
#300000
0(
#310000
0%
b101 '"
b1100000 ("
b0 "
b0 8
0;
b1011 1
1(
#320000
0(
#330000
1%
b1000 "
b1000 8
1;
b1100 1
1(
#340000
0(
#350000
0%
b110 '"
b11000000 ("
b0 "
b0 8
0;
b1101 1
1(
#360000
0(
#370000
1%
1&
1;
b1010 "
b1010 8
1<
b1110 1
1(
#380000
0(
#390000
0%
b111 '"
b10000000 ("
b10 "
b10 8
0;
b1111 1
1(
#400000
0(
#410000
1%
b1010 "
b1010 8
1;
b10000 1
1(
#420000
0(
#430000
0%
b10 ,"
b0 '"
b0 ("
b10 "
b10 8
0;
b10001 1
1(
#440000
0(
#450000
1%
0&
1;
b1000 "
b1000 8
0<
b10010 1
1(
#460000
0(
#470000
0%
b1 '"
b0 "
b0 8
0;
b10011 1
1(
#480000
0(
#490000
1%
b1000 "
b1000 8
1;
b10100 1
1(
#500000
0(
#510000
0%
b10 '"
b0 "
b0 8
0;
b10101 1
1(
#520000
0(
#530000
1%
b1000 "
b1000 8
1;
b10110 1
1(
#540000
0(
#550000
0%
b11 '"
b0 "
b0 8
0;
b10111 1
1(
#560000
0(
#570000
1%
b1000 "
b1000 8
1;
b11000 1
1(
#580000
0(
#590000
0%
b100 '"
b0 "
b0 8
0;
b11001 1
1(
#600000
0(
#610000
1%
b1000 "
b1000 8
1;
b11010 1
1(
#620000
0(
#630000
0%
b101 '"
b0 "
b0 8
0;
b11011 1
1(
#640000
0(
#650000
1%
b1000 "
b1000 8
1;
b11100 1
1(
#660000
0(
#670000
0%
b110 '"
b0 "
b0 8
0;
b11101 1
1(
#680000
0(
#690000
1%
b1000 "
b1000 8
1;
b11110 1
1(
#700000
0(
#710000
0%
b111 '"
b0 "
b0 8
0;
b11111 1
1(
#720000
0(
#730000
1%
b1000 "
b1000 8
1;
b100000 1
1(
#740000
0(
#750000
0%
b1000 '"
b0 "
b0 8
0;
b100001 1
1(
#760000
0(
#770000
1%
b1000 "
b1000 8
1;
b100010 1
1(
#780000
0(
#790000
0%
b1001 '"
b0 "
b0 8
0;
b100011 1
1(
#800000
0(
#810000
1%
b1000 "
b1000 8
1;
b100100 1
1(
#820000
0(
#830000
0%
b1010 '"
b0 "
b0 8
0;
b100101 1
1(
#840000
0(
#850000
1%
b1000 "
b1000 8
1;
b100110 1
1(
#860000
0(
#870000
0%
b1011 '"
b0 "
b0 8
0;
b100111 1
1(
#880000
0(
#890000
1%
b1000 "
b1000 8
1;
b101000 1
1(
#900000
0(
#910000
0%
b1100 '"
b0 "
b0 8
0;
b101001 1
1(
#920000
0(
#930000
1%
b1000 "
b1000 8
1;
b101010 1
1(
#940000
0(
#950000
0%
b1101 '"
b0 "
b0 8
0;
b101011 1
1(
#960000
0(
#970000
1%
b1000 "
b1000 8
1;
b101100 1
1(
#980000
0(
#990000
0%
b1110 '"
b0 "
b0 8
0;
b101101 1
1(
#1000000
0(
#1010000
1%
b1000 "
b1000 8
1;
b101110 1
1(
#1020000
0(
#1030000
0%
b1111 '"
b0 "
b0 8
0;
b101111 1
1(
#1040000
0(
#1050000
1%
b1000 "
b1000 8
1;
b110000 1
1(
#1060000
0(
#1070000
b0 $
b0 5
1,
b110001000001010 )
b0 3
0%
b11 ,"
b0 '"
b0 "
b0 8
0;
b110001 1
1(
#1080000
0(
#1090000
1%
b1000 "
b1000 8
1;
0Z
b110010 1
1(
#1100000
0(
#1110000
b100 $
b100 5
1+
0%
b1 '"
b0 "
b0 8
0;
b110011 1
1(
#1120000
0(
#1130000
1%
b1000 "
b1000 8
1;
1Z
b110100 1
1(
#1140000
0(
#1150000
0%
b10 '"
b1 )"
b0 "
b0 8
0;
b110101 1
1(
#1160000
0(
#1170000
1%
b1000 "
b1000 8
1;
b110110 1
1(
#1180000
0(
#1190000
b0 $
b0 5
0+
0%
b11 '"
b11 )"
b0 "
b0 8
0;
b110111 1
1(
#1200000
0(
#1210000
1%
b1000 "
b1000 8
1;
0Z
b111000 1
1(
#1220000
0(
#1230000
0%
b100 '"
b110 )"
b0 "
b0 8
0;
b111001 1
1(
#1240000
0(
#1250000
1%
b1000 "
b1000 8
1;
b111010 1
1(
#1260000
0(
#1270000
0%
b101 '"
b1100 )"
b0 "
b0 8
0;
b111011 1
1(
#1280000
0(
#1290000
1%
b1000 "
b1000 8
1;
b111100 1
1(
#1300000
0(
#1310000
b100 $
b100 5
1+
0%
b110 '"
b11000 )"
b0 "
b0 8
0;
b111101 1
1(
#1320000
0(
#1330000
1%
b1000 "
b1000 8
1;
1Z
b111110 1
1(
#1340000
0(
#1350000
b0 $
b0 5
0+
0%
b111 '"
b110001 )"
b0 "
b0 8
0;
b111111 1
1(
#1360000
0(
#1370000
1%
b1000 "
b1000 8
1;
0Z
b1000000 1
1(
#1380000
0(
#1390000
0%
b1000 '"
b1100010 )"
b0 "
b0 8
0;
b1000001 1
1(
#1400000
0(
#1410000
1%
b1000 "
b1000 8
1;
b1000010 1
1(
#1420000
0(
#1430000
0%
b1001 '"
b11000100 )"
b0 "
b0 8
0;
b1000011 1
1(
#1440000
0(
#1450000
1%
b1000 "
b1000 8
1;
b1000100 1
1(
#1460000
0(
#1470000
0%
b1010 '"
b110001000 )"
b0 "
b0 8
0;
b1000101 1
1(
#1480000
0(
#1490000
1%
b1000 "
b1000 8
1;
b1000110 1
1(
#1500000
0(
#1510000
0%
b1011 '"
b1100010000 )"
b0 "
b0 8
0;
b1000111 1
1(
#1520000
0(
#1530000
1%
b1000 "
b1000 8
1;
b1001000 1
1(
#1540000
0(
#1550000
b100 $
b100 5
1+
0%
b1100 '"
b11000100000 )"
b0 "
b0 8
0;
b1001001 1
1(
#1560000
0(
#1570000
1%
b1000 "
b1000 8
1;
1Z
b1001010 1
1(
#1580000
0(
#1590000
b0 $
b0 5
0+
0%
b1101 '"
b110001000001 )"
b0 "
b0 8
0;
b1001011 1
1(
#1600000
0(
#1610000
1%
b1000 "
b1000 8
1;
0Z
b1001100 1
1(
#1620000
0(
#1630000
b100 $
b100 5
1+
0%
b1110 '"
b1100010000010 )"
b0 "
b0 8
0;
b1001101 1
1(
#1640000
0(
#1650000
1%
b1000 "
b1000 8
1;
1Z
b1001110 1
1(
#1660000
0(
#1670000
b0 $
b0 5
0+
0%
b1111 '"
b11000100000101 )"
b0 "
b0 8
0;
b1001111 1
1(
#1680000
0(
#1690000
1%
b1000 "
b1000 8
1;
0Z
b1010000 1
1(
#1700000
0(
#1710000
b0z00 $
b0z00 5
0,
b1010 @
b1010 0"
b0 w
06
b1010 S
b1010 `
b1010 r
b1010 ^
b1010 T
b1010 [
b1010 V
b1010 l
1R
1'
0y
b110 h
b1 /"
b0 W
b0 k
b0 ."
0L
1A
0%
b0 ,"
1=
1H
b0 +"
b110001000001010 K
b110001000001010 i
b110001000001010 *"
b10000 '"
b110001000001010 )"
b1 "
b1 8
0;
b1010001 1
1(
#1720000
0(
#1730000
b1 !
b1 7
0H
b1 O
b1 e
b1 {
b1 D
b1 c
b1 }
b1 ~
zZ
b1010010 1
b1 2
1(
#1740000
0(
#1750000
0'
b1 ,"
b0 '"
b1 &"
b11 ("
b0 "
b0 8
0=
b1010011 1
1(
#1760000
0(
#1770000
1%
b1000 "
b1000 8
1;
b1010100 1
1(
#1780000
0(
#1790000
0%
b1 '"
b110 ("
b0 "
b0 8
0;
b1010101 1
1(
#1800000
0(
#1810000
1%
b1000 "
b1000 8
1;
b1010110 1
1(
#1820000
0(
#1830000
0%
b10 '"
b1100 ("
b0 "
b0 8
0;
b1010111 1
1(
#1840000
0(
#1850000
1%
b1000 "
b1000 8
1;
b1011000 1
1(
#1860000
0(
#1870000
0%
b11 '"
b11000 ("
b0 "
b0 8
0;
b1011001 1
1(
#1880000
0(
#1890000
1%
b1000 "
b1000 8
1;
b1011010 1
1(
#1900000
0(
#1910000
0%
b100 '"
b110000 ("
b0 "
b0 8
0;
b1011011 1
1(
#1920000
0(
#1930000
1%
b1000 "
b1000 8
1;
b1011100 1
1(
#1940000
0(
#1950000
0%
b101 '"
b1100000 ("
b0 "
b0 8
0;
b1011101 1
1(
#1960000
0(
#1970000
1%
b1000 "
b1000 8
1;
b1011110 1
1(
#1980000
0(
#1990000
0%
b110 '"
b11000000 ("
b0 "
b0 8
0;
b1011111 1
1(
#2000000
0(
#2010000
1%
1&
1;
b1010 "
b1010 8
1<
b1100000 1
1(
#2020000
0(
#2030000
0%
b111 '"
b10000000 ("
b10 "
b10 8
0;
b1100001 1
1(
#2040000
0(
#2050000
1%
b1010 "
b1010 8
1;
b1100010 1
1(
#2060000
0(
#2070000
0%
b10 ,"
b0 '"
b0 ("
b10 "
b10 8
0;
b1100011 1
1(
#2080000
0(
#2090000
1%
0&
1;
b1000 "
b1000 8
0<
b1100100 1
1(
#2100000
0(
#2110000
0%
b1 '"
b10 &"
b0 "
b0 8
0;
b1100101 1
1(
#2120000
0(
#2130000
1%
b1000 "
b1000 8
1;
b1100110 1
1(
#2140000
0(
#2150000
0%
b10 '"
b100 &"
b0 "
b0 8
0;
b1100111 1
1(
#2160000
0(
#2170000
1%
b1000 "
b1000 8
1;
b1101000 1
1(
#2180000
0(
#2190000
0%
b11 '"
b1000 &"
b0 "
b0 8
0;
b1101001 1
1(
#2200000
0(
#2210000
1%
b1000 "
b1000 8
1;
b1101010 1
1(
#2220000
0(
#2230000
0%
b100 '"
b10000 &"
b0 "
b0 8
0;
b1101011 1
1(
#2240000
0(
#2250000
1%
b1000 "
b1000 8
1;
b1101100 1
1(
#2260000
0(
#2270000
0%
b101 '"
b100000 &"
b0 "
b0 8
0;
b1101101 1
1(
#2280000
0(
#2290000
1%
b1000 "
b1000 8
1;
b1101110 1
1(
#2300000
0(
#2310000
0%
b110 '"
b1000000 &"
b0 "
b0 8
0;
b1101111 1
1(
#2320000
0(
#2330000
1%
b1000 "
b1000 8
1;
b1110000 1
1(
#2340000
0(
#2350000
0%
b111 '"
b10000000 &"
b0 "
b0 8
0;
b1110001 1
1(
#2360000
0(
#2370000
1%
b1000 "
b1000 8
1;
b1110010 1
1(
#2380000
0(
#2390000
0%
b1000 '"
b100000000 &"
b0 "
b0 8
0;
b1110011 1
1(
#2400000
0(
#2410000
1%
b1000 "
b1000 8
1;
b1110100 1
1(
#2420000
0(
#2430000
0%
b1001 '"
b1000000000 &"
b0 "
b0 8
0;
b1110101 1
1(
#2440000
0(
#2450000
1%
b1000 "
b1000 8
1;
b1110110 1
1(
#2460000
0(
#2470000
0%
b1010 '"
b10000000000 &"
b0 "
b0 8
0;
b1110111 1
1(
#2480000
0(
#2490000
1%
b1000 "
b1000 8
1;
b1111000 1
1(
#2500000
0(
#2510000
0%
b1011 '"
b100000000000 &"
b0 "
b0 8
0;
b1111001 1
1(
#2520000
0(
#2530000
1%
b1000 "
b1000 8
1;
b1111010 1
1(
#2540000
0(
#2550000
0%
b1100 '"
b1000000000000 &"
b0 "
b0 8
0;
b1111011 1
1(
#2560000
0(
#2570000
1%
b1000 "
b1000 8
1;
b1111100 1
1(
#2580000
0(
#2590000
0%
b1101 '"
b10000000000000 &"
b0 "
b0 8
0;
b1111101 1
1(
#2600000
0(
#2610000
1%
b1000 "
b1000 8
1;
b1111110 1
1(
#2620000
0(
#2630000
0%
b1110 '"
b100000000000000 &"
b0 "
b0 8
0;
b1111111 1
1(
#2640000
0(
#2650000
1%
b1000 "
b1000 8
1;
b10000000 1
1(
#2660000
0(
#2670000
0%
b1111 '"
b1000000000000000 &"
b0 "
b0 8
0;
b10000001 1
1(
#2680000
0(
#2690000
1%
1&
1;
b1010 "
b1010 8
1<
b10000010 1
1(
#2700000
0(
#2710000
b0 $
b0 5
1,
b110010000010100 )
b1 3
0%
b11 ,"
b0 '"
b0 &"
b10 "
b10 8
0;
b10000011 1
1(
#2720000
0(
#2730000
1%
0&
1;
b1000 "
b1000 8
0<
0Z
b10000100 1
1(
#2740000
0(
#2750000
b100 $
b100 5
1+
0%
b1 '"
b1100010000010100 )"
b0 "
b0 8
0;
b10000101 1
1(
#2760000
0(
#2770000
1%
b1000 "
b1000 8
1;
1Z
b10000110 1
1(
#2780000
0(
#2790000
0%
b10 '"
b1000100000101001 )"
b0 "
b0 8
0;
b10000111 1
1(
#2800000
0(
#2810000
1%
b1000 "
b1000 8
1;
b10001000 1
1(
#2820000
0(
#2830000
b0 $
b0 5
0+
0%
b11 '"
b1000001010011 )"
b0 "
b0 8
0;
b10001001 1
1(
#2840000
0(
#2850000
1%
b1000 "
b1000 8
1;
0Z
b10001010 1
1(
#2860000
0(
#2870000
0%
b100 '"
b10000010100110 )"
b0 "
b0 8
0;
b10001011 1
1(
#2880000
0(
#2890000
1%
b1000 "
b1000 8
1;
b10001100 1
1(
#2900000
0(
#2910000
b100 $
b100 5
1+
0%
b101 '"
b100000101001100 )"
b0 "
b0 8
0;
b10001101 1
1(
#2920000
0(
#2930000
1%
b1000 "
b1000 8
1;
1Z
b10001110 1
1(
#2940000
0(
#2950000
b0 $
b0 5
0+
0%
b110 '"
b1000001010011001 )"
b0 "
b0 8
0;
b10001111 1
1(
#2960000
0(
#2970000
1%
b1000 "
b1000 8
1;
0Z
b10010000 1
1(
#2980000
0(
#2990000
0%
b111 '"
b10100110010 )"
b0 "
b0 8
0;
b10010001 1
1(
#3000000
0(
#3010000
1%
b1000 "
b1000 8
1;
b10010010 1
1(
#3020000
0(
#3030000
0%
b1000 '"
b101001100100 )"
b0 "
b0 8
0;
b10010011 1
1(
#3040000
0(
#3050000
1%
b1000 "
b1000 8
1;
b10010100 1
1(
#3060000
0(
#3070000
0%
b1001 '"
b1010011001000 )"
b0 "
b0 8
0;
b10010101 1
1(
#3080000
0(
#3090000
1%
b1000 "
b1000 8
1;
b10010110 1
1(
#3100000
0(
#3110000
0%
b1010 '"
b10100110010000 )"
b0 "
b0 8
0;
b10010111 1
1(
#3120000
0(
#3130000
1%
b1000 "
b1000 8
1;
b10011000 1
1(
#3140000
0(
#3150000
b100 $
b100 5
1+
0%
b1011 '"
b101001100100000 )"
b0 "
b0 8
0;
b10011001 1
1(
#3160000
0(
#3170000
1%
b1000 "
b1000 8
1;
1Z
b10011010 1
1(
#3180000
0(
#3190000
b0 $
b0 5
0+
0%
b1100 '"
b1010011001000001 )"
b0 "
b0 8
0;
b10011011 1
1(
#3200000
0(
#3210000
1%
b1000 "
b1000 8
1;
0Z
b10011100 1
1(
#3220000
0(
#3230000
b100 $
b100 5
1+
0%
b1101 '"
b100110010000010 )"
b0 "
b0 8
0;
b10011101 1
1(
#3240000
0(
#3250000
1%
b1000 "
b1000 8
1;
1Z
b10011110 1
1(
#3260000
0(
#3270000
b0 $
b0 5
0+
0%
b1110 '"
b1001100100000101 )"
b0 "
b0 8
0;
b10011111 1
1(
#3280000
0(
#3290000
1%
b1000 "
b1000 8
1;
0Z
b10100000 1
1(
#3300000
0(
#3310000
0%
b1111 '"
b11001000001010 )"
b0 "
b0 8
0;
b10100001 1
1(
#3320000
0(
#3330000
1%
b1000 "
b1000 8
1;
b10100010 1
1(
#3340000
0(
#3350000
b0z00 $
b0z00 5
0,
b10100 @
b10100 0"
b10100 S
b10100 `
b10100 r
b10100 ^
b10100 T
b10100 [
1'
b10 /"
b0 W
b0 k
b0 ."
b10100 V
b10100 l
1R
1A
0%
b0 ,"
1=
1H
b1 +"
b110010000010100 K
b110010000010100 i
b110010000010100 *"
b10000 '"
b110010000010100 )"
b1 "
b1 8
0;
b10100011 1
1(
#3360000
0(
#3370000
b10 !
b10 7
0H
b10 O
b10 e
b10 {
b10 D
b10 c
b10 }
b10 ~
zZ
b10100100 1
b10 2
1(
#3380000
0(
#3390000
0'
b1 ,"
b0 '"
b10 &"
b11 ("
b0 "
b0 8
0=
b10100101 1
1(
#3400000
0(
#3410000
1%
b1000 "
b1000 8
1;
b10100110 1
1(
#3420000
0(
#3430000
0%
b1 '"
b110 ("
b0 "
b0 8
0;
b10100111 1
1(
#3440000
0(
#3450000
1%
b1000 "
b1000 8
1;
b10101000 1
1(
#3460000
0(
#3470000
0%
b10 '"
b1100 ("
b0 "
b0 8
0;
b10101001 1
1(
#3480000
0(
#3490000
1%
b1000 "
b1000 8
1;
b10101010 1
1(
#3500000
0(
#3510000
0%
b11 '"
b11000 ("
b0 "
b0 8
0;
b10101011 1
1(
#3520000
0(
#3530000
1%
b1000 "
b1000 8
1;
b10101100 1
1(
#3540000
0(
#3550000
0%
b100 '"
b110000 ("
b0 "
b0 8
0;
b10101101 1
1(
#3560000
0(
#3570000
1%
b1000 "
b1000 8
1;
b10101110 1
1(
#3580000
0(
#3590000
0%
b101 '"
b1100000 ("
b0 "
b0 8
0;
b10101111 1
1(
#3600000
0(
#3610000
1%
b1000 "
b1000 8
1;
b10110000 1
1(
#3620000
0(
#3630000
0%
b110 '"
b11000000 ("
b0 "
b0 8
0;
b10110001 1
1(
#3640000
0(
#3650000
1%
1&
1;
b1010 "
b1010 8
1<
b10110010 1
1(
#3660000
0(
#3670000
0%
b111 '"
b10000000 ("
b10 "
b10 8
0;
b10110011 1
1(
#3680000
0(
#3690000
1%
b1010 "
b1010 8
1;
b10110100 1
1(
#3700000
0(
#3710000
0%
b10 ,"
b0 '"
b0 ("
b10 "
b10 8
0;
b10110101 1
1(
#3720000
0(
#3730000
1%
0&
1;
b1000 "
b1000 8
0<
b10110110 1
1(
#3740000
0(
#3750000
0%
b1 '"
b100 &"
b0 "
b0 8
0;
b10110111 1
1(
#3760000
0(
#3770000
1%
b1000 "
b1000 8
1;
b10111000 1
1(
#3780000
0(
#3790000
0%
b10 '"
b1000 &"
b0 "
b0 8
0;
b10111001 1
1(
#3800000
0(
#3810000
1%
b1000 "
b1000 8
1;
b10111010 1
1(
#3820000
0(
#3830000
0%
b11 '"
b10000 &"
b0 "
b0 8
0;
b10111011 1
1(
#3840000
0(
#3850000
1%
b1000 "
b1000 8
1;
b10111100 1
1(
#3860000
0(
#3870000
0%
b100 '"
b100000 &"
b0 "
b0 8
0;
b10111101 1
1(
#3880000
0(
#3890000
1%
b1000 "
b1000 8
1;
b10111110 1
1(
#3900000
0(
#3910000
0%
b101 '"
b1000000 &"
b0 "
b0 8
0;
b10111111 1
1(
#3920000
0(
#3930000
1%
b1000 "
b1000 8
1;
b11000000 1
1(
#3940000
0(
#3950000
0%
b110 '"
b10000000 &"
b0 "
b0 8
0;
b11000001 1
1(
#3960000
0(
#3970000
1%
b1000 "
b1000 8
1;
b11000010 1
1(
#3980000
0(
#3990000
0%
b111 '"
b100000000 &"
b0 "
b0 8
0;
b11000011 1
1(
#4000000
0(
#4010000
1%
b1000 "
b1000 8
1;
b11000100 1
1(
#4020000
0(
#4030000
0%
b1000 '"
b1000000000 &"
b0 "
b0 8
0;
b11000101 1
1(
#4040000
0(
#4050000
1%
b1000 "
b1000 8
1;
b11000110 1
1(
#4060000
0(
#4070000
0%
b1001 '"
b10000000000 &"
b0 "
b0 8
0;
b11000111 1
1(
#4080000
0(
#4090000
1%
b1000 "
b1000 8
1;
b11001000 1
1(
#4100000
0(
#4110000
0%
b1010 '"
b100000000000 &"
b0 "
b0 8
0;
b11001001 1
1(
#4120000
0(
#4130000
1%
b1000 "
b1000 8
1;
b11001010 1
1(
#4140000
0(
#4150000
0%
b1011 '"
b1000000000000 &"
b0 "
b0 8
0;
b11001011 1
1(
#4160000
0(
#4170000
1%
b1000 "
b1000 8
1;
b11001100 1
1(
#4180000
0(
#4190000
0%
b1100 '"
b10000000000000 &"
b0 "
b0 8
0;
b11001101 1
1(
#4200000
0(
#4210000
1%
b1000 "
b1000 8
1;
b11001110 1
1(
#4220000
0(
#4230000
0%
b1101 '"
b100000000000000 &"
b0 "
b0 8
0;
b11001111 1
1(
#4240000
0(
#4250000
1%
b1000 "
b1000 8
1;
b11010000 1
1(
#4260000
0(
#4270000
0%
b1110 '"
b1000000000000000 &"
b0 "
b0 8
0;
b11010001 1
1(
#4280000
0(
#4290000
1%
1&
1;
b1010 "
b1010 8
1<
b11010010 1
1(
#4300000
0(
#4310000
0%
b1111 '"
b0 &"
b10 "
b10 8
0;
b11010011 1
1(
#4320000
0(
#4330000
1%
0&
1;
b1000 "
b1000 8
0<
b11010100 1
1(
#4340000
0(
#4350000
b0 $
b0 5
1,
b11001010000 )
b10 3
0%
b11 ,"
b0 '"
b0 "
b0 8
0;
b11010101 1
1(
#4360000
0(
#4370000
1%
b1000 "
b1000 8
1;
0Z
b11010110 1
1(
#4380000
0(
#4390000
0%
b1 '"
b1100100000101000 )"
b0 "
b0 8
0;
b11010111 1
1(
#4400000
0(
#4410000
1%
b1000 "
b1000 8
1;
b11011000 1
1(
#4420000
0(
#4430000
0%
b10 '"
b1001000001010000 )"
b0 "
b0 8
0;
b11011001 1
1(
#4440000
0(
#4450000
1%
b1000 "
b1000 8
1;
b11011010 1
1(
