cpu_simulation.vcd
$date
	Mon Jan 26 17:35:20 2026
$end
$version
	Icarus Verilog
$end
$timescale
	1ps
$end
$scope module tt_um_CPU_tb $end
$var wire 8 ! uo_out [7:0] $end
$var wire 8 " uio_out [7:0] $end
$var wire 8 # uio_oe [7:0] $end
$var wire 8 $ uio_in [7:0] $end
$var wire 1 % spi_sclk $end
$var wire 1 & spi_cs $end
$var reg 1 ' clk $end
$var reg 16 ( current_instruction [15:0] $end
$var reg 1 ) ena $end
$var reg 1 * f_io1 $end
$var reg 1 + flash_active $end
$var reg 8 , pass_count [7:0] $end
$var reg 1 - rst_n $end
$var reg 8 . test_count [7:0] $end
$var reg 8 / ui_in [7:0] $end
$var integer 32 0 i [31:0] $end
$var integer 32 1 instr_count [31:0] $end
$scope function get_instruction $end
$var reg 16 2 addr [15:0] $end
$upscope $end
$scope module uut $end
$var wire 1 3 audio_pwm $end
$var wire 1 ' clk $end
$var wire 1 ) ena $end
$var wire 1 4 i2c_scl_oe $end
$var wire 1 5 i2c_scl_out $end
$var wire 1 6 i2c_sda_oe $end
$var wire 1 7 i2c_sda_out $end
$var wire 1 - rst_n $end
$var wire 1 8 spi_io1_o $end
$var wire 1 9 spi_io1_oe $end
$var wire 1 : uart_tx $end
$var wire 8 ; ui_in [7:0] $end
$var wire 8 < uio_in [7:0] $end
$var wire 1 = zero $end
$var wire 8 > uo_out [7:0] $end
$var wire 8 ? uio_out [7:0] $end
$var wire 8 @ uio_oe [7:0] $end
$var wire 4 A stored_flags [3:0] $end
$var wire 1 B spi_sclk $end
$var wire 1 C spi_io1_i $end
$var wire 1 D spi_io0_oe $end
$var wire 1 E spi_io0_o $end
$var wire 1 F spi_io0_i $end
$var wire 1 G spi_cs $end
$var wire 1 H rst $end
$var wire 2 I reg_write_src [1:0] $end
$var wire 8 J reg_write_data [7:0] $end
$var wire 1 K reg_write $end
$var wire 8 L reg_data2 [7:0] $end
$var wire 8 M reg_data1 [7:0] $end
$var wire 16 N pc_current [15:0] $end
$var wire 1 O overflow $end
$var wire 1 P negative $end
$var wire 1 Q mem_write $end
$var wire 1 R mem_ready $end
$var wire 1 S mem_read $end
$var wire 8 T mem_rdata [7:0] $end
$var wire 1 U is_branch $end
$var wire 16 V instruction [15:0] $end
$var wire 1 W i2c_sda_in $end
$var wire 1 X i2c_scl_in $end
$var wire 1 Y flag_write $end
$var wire 1 Z carry $end
$var wire 4 [ branch_type [3:0] $end
$var wire 16 \ branch_target [15:0] $end
$var wire 1 ] branch_taken $end
$var wire 16 ^ branch_offset [15:0] $end
$var wire 1 _ alu_src $end
$var wire 8 ` alu_result [7:0] $end
$var wire 8 a alu_operand_b [7:0] $end
$var wire 4 b alu_op [3:0] $end
$var wire 8 c alu_immediate [7:0] $end
$var wire 3 d addr2_select [2:0] $end
$var wire 3 e addr1_select [2:0] $end
$scope module alu $end
$var wire 8 f operand2 [7:0] $end
$var wire 4 g operation [3:0] $end
$var wire 8 h operand1 [7:0] $end
$var reg 8 i b_inv [7:0] $end
$var reg 1 Z carry_flag $end
$var reg 1 j cin $end
$var reg 1 P negative_flag $end
$var reg 1 O overflow_flag $end
$var reg 8 k result [7:0] $end
$var reg 9 l tmp_result [8:0] $end
$var reg 1 = zero_flag $end
$upscope $end
$scope module branch_unit $end
$var wire 4 m stored_flags [3:0] $end
$var wire 16 n pc_current [15:0] $end
$var wire 4 o branch_type [3:0] $end
$var wire 16 p branch_target [15:0] $end
$var wire 16 q branch_offset [15:0] $end
$var reg 1 ] branch_taken $end
$upscope $end
$scope module cu $end
$var wire 4 r opcode [3:0] $end
$var wire 16 s instruction [15:0] $end
$var reg 3 t addr1_select [2:0] $end
$var reg 3 u addr2_select [2:0] $end
$var reg 8 v alu_immediate [7:0] $end
$var reg 4 w alu_operation [3:0] $end
$var reg 1 _ alu_src $end
$var reg 16 x branch_offset [15:0] $end
$var reg 4 y branch_type [3:0] $end
$var reg 1 Y flag_write $end
$var reg 1 U is_branch $end
$var reg 1 S mem_read $end
$var reg 1 Q mem_write $end
$var reg 1 K reg_write $end
$var reg 2 z reg_write_src [1:0] $end
$upscope $end
$scope module data_mem $end
$var wire 8 { addr [7:0] $end
$var wire 1 ' clk $end
$var wire 1 S mem_read $end
$var wire 1 | mem_write $end
$var wire 8 } wdata [7:0] $end
$var reg 8 ~ rdata [7:0] $end
$var integer 32 !" i [31:0] $end
$upscope $end
$scope module flag_reg $end
$var wire 1 ' clk $end
$var wire 4 "" flags_alu [3:0] $end
$var wire 1 H rst $end
$var wire 1 #" write $end
$var reg 4 $" stored_flags [3:0] $end
$upscope $end
$scope module pc $end
$var wire 16 %" branch_addr [15:0] $end
$var wire 1 ] branch_en $end
$var wire 1 ' clk $end
$var wire 1 H rst $end
$var wire 1 R mem_ready $end
$var reg 16 &" pc_current [15:0] $end
$upscope $end
$scope module program_mem $end
$var wire 16 '" address [15:0] $end
$var wire 1 ' clk $end
$var wire 16 (" instruction [15:0] $end
$var wire 1 H rst $end
$var wire 1 F spi_io0_i $end
$var wire 1 D spi_io0_oe $end
$var wire 1 C spi_io1_i $end
$var wire 1 8 spi_io1_o $end
$var wire 1 9 spi_io1_oe $end
$var wire 1 E spi_io0_o $end
$var parameter 3 )" STATE_ADDR $end
$var parameter 3 *" STATE_CMD $end
$var parameter 3 +" STATE_IDLE $end
$var parameter 3 ," STATE_READ $end
$var parameter 3 -" STATE_READY $end
$var reg 5 ." bit_cnt [4:0] $end
$var reg 16 /" instr_buffer [15:0] $end
$var reg 16 0" last_address [15:0] $end
$var reg 1 R ready $end
$var reg 24 1" shift_reg [23:0] $end
$var reg 1 G spi_cs $end
$var reg 1 2" spi_phase $end
$var reg 1 B spi_sclk $end
$var reg 3 3" state [2:0] $end
$upscope $end
$scope module regfile $end
$var wire 3 4" addr1_r [2:0] $end
$var wire 3 5" addr2_r [2:0] $end
$var wire 3 6" addr_wr [2:0] $end
$var wire 1 ' clk $end
$var wire 8 7" data_wr [7:0] $end
$var wire 1 R enable $end
$var wire 1 H rst $end
$var wire 1 K write_en $end
$var wire 8 8" out2_r [7:0] $end
$var wire 8 9" out1_r [7:0] $end
$var integer 32 :" i [31:0] $end
$upscope $end
$upscope $end
$scope task check_memory $end
$var reg 8 ;" addr [7:0] $end
$var reg 8 <" expected [7:0] $end
$var reg 1600 =" test_name [1600:1] $end
$upscope $end
$scope task check_register $end
$var reg 8 >" expected [7:0] $end
$var reg 3 ?" reg_num [2:0] $end
$var reg 1600 @" test_name [1600:1] $end
$upscope $end
$upscope $end
$enddefinitions $end
$comment Show the parameter values. $end
$dumpall
b100 -"
b11 ,"
b0 +"
b1 *"
b10 )"
$end
#0
$dumpvars
bx @"
bx ?"
bx >"
bx ="
bx <"
bx ;"
bx :"
bx 9"
bx 8"
bx 7"
bx 6"
bx 5"
bx 4"
bx 3"
x2"
bx 1"
bx 0"
bx /"
bx ."
bx ("
bx '"
bx &"
bx %"
bx $"
x#"
bx ""
b100000000 !"
b0 ~
bx }
x|
bx {
bx z
bx y
bx x
bx w
bx v
bx u
bx t
bx s
bx r
bx q
bx p
bx o
bx n
bx m
bx l
bx k
xj
bx i
bx h
bx g
bx f
bx e
bx d
bx c
bx b
bx a
bx `
x_
bx ^
x]
bx \
bx [
xZ
xY
0X
0W
bx V
xU
b0 T
xS
xR
xQ
xP
xO
bx N
bx M
bx L
xK
bx J
bx I
1H
xG
0F
xE
xD
zC
xB
bx A
b10x1 @
b0x0xx ?
b0xx1xxxx >
x=
b0z00 <
b0 ;
1:
09
08
07
06
05
04
03
bx 2
bx 1
bx 0
b0 /
b0 .
0-
b0 ,
0+
0*
1)
bx (
0'
x&
x%
b0z00 $
b10x1 #
b0x0xx "
b0xx1xxxx !
$end
#10000
b0 J
b0 7"
0P
1=
b0 `
b0 k
b0 {
0j
b0 i
0Z
b1 ""
0O
b0 l
b0 a
b0 f
0%
b0 r
b0 6"
b0 d
b0 u
b0 5"
b0 e
b0 t
b0 4"
b0 \
b0 p
b0 %"
b0 ^
b0 q
b0 x
b0 [
b0 o
b0 y
0U
1Y
b0 c
b0 v
0_
b0 b
b0 g
b0 w
0Q
0S
b0 I
b0 z
1K
1&
b0 M
b0 h
b0 9"
b0 L
b0 }
b0 8"
0|
0#"
b1001 #
b1001 @
0D
b10000 !
b10000 >
0]
02"
0B
b0 V
b0 s
b0 ("
b0 /"
b1111111111111111 0"
b0x1 "
b0x1 ?
1G
0R
b0 3"
b0 N
b0 n
b0 &"
b0 '"
b0 A
b0 m
b0 $"
b1000 :"
1'
#20000
0'
#30000
b1000 :"
1'
#40000
0'
#50000
b1000 :"
1'
#60000
0'
#70000
b1000 :"
1'
#80000
0'
#90000
b1000 :"
1'
#100000
0'
b0 0
b0 1
0H
1-
#110000
b1011 #
b1011 @
1D
0E
0&
b0 ."
b1 3"
b110000000000000000 1"
b0 "
b0 ?
0G
b1 0
1'
#120000
0'
#130000
12"
b10 0
1'
#140000
0'
#150000
1%
b1 ."
b1100000000000000000 1"
b1000 "
b1000 ?
1B
02"
b11 0
1'
#160000
0'
#170000
0%
b0 "
b0 ?
0B
12"
b100 0
1'
#180000
0'
#190000
1%
b10 ."
b11000000000000000000 1"
b1000 "
b1000 ?
1B
02"
b101 0
1'
#200000
0'
#210000
0%
b0 "
b0 ?
0B
12"
b110 0
1'
#220000
0'
#230000
1%
b11 ."
b110000000000000000000 1"
b1000 "
b1000 ?
1B
02"
b111 0
1'
#240000
0'
#250000
0%
b0 "
b0 ?
0B
12"
b1000 0
1'
#260000
0'
#270000
1%
b100 ."
b1100000000000000000000 1"
b1000 "
b1000 ?
1B
02"
b1001 0
1'
#280000
0'
#290000
0%
b0 "
b0 ?
0B
12"
b1010 0
1'
#300000
0'
#310000
1%
b101 ."
b11000000000000000000000 1"
b1000 "
b1000 ?
1B
02"
b1011 0
1'
#320000
0'
#330000
0%
b0 "
b0 ?
0B
12"
b1100 0
1'
#340000
0'
#350000
1E
1%
b110 ."
b110000000000000000000000 1"
b1010 "
b1010 ?
1B
02"
b1101 0
1'
#360000
0'
#370000
0%
b10 "
b10 ?
0B
12"
b1110 0
1'
#380000
0'
#390000
1%
b111 ."
b100000000000000000000000 1"
b1010 "
b1010 ?
1B
02"
b1111 0
1'
#400000
0'
#410000
0%
b10 "
b10 ?
0B
12"
b10000 0
1'
#420000
0'
#430000
0E
1%
b10 3"
b0 1"
b0 ."
b1000 "
b1000 ?
1B
02"
b10001 0
1'
#440000
0'
#450000
0%
b0 "
b0 ?
0B
12"
b10010 0
1'
#460000
0'
#470000
1%
b1 ."
b1000 "
b1000 ?
1B
02"
b10011 0
1'
#480000
0'
#490000
0%
b0 "
b0 ?
0B
12"
b10100 0
1'
#500000
0'
#510000
1%
b10 ."
b1000 "
b1000 ?
1B
02"
b10101 0
1'
#520000
0'
#530000
0%
b0 "
b0 ?
0B
12"
b10110 0
1'
#540000
0'
#550000
1%
b11 ."
b1000 "
b1000 ?
1B
02"
b10111 0
1'
#560000
0'
#570000
0%
b0 "
b0 ?
0B
12"
b11000 0
1'
#580000
0'
#590000
1%
b100 ."
b1000 "
b1000 ?
1B
02"
b11001 0
1'
#600000
0'
#610000
0%
b0 "
b0 ?
0B
12"
b11010 0
1'
#620000
0'
#630000
1%
b101 ."
b1000 "
b1000 ?
1B
02"
b11011 0
1'
#640000
0'
#650000
0%
b0 "
b0 ?
0B
12"
b11100 0
1'
#660000
0'
#670000
1%
b110 ."
b1000 "
b1000 ?
1B
02"
b11101 0
1'
#680000
0'
#690000
0%
b0 "
b0 ?
0B
12"
b11110 0
1'
#700000
0'
#710000
1%
b111 ."
b1000 "
b1000 ?
1B
02"
b11111 0
1'
#720000
0'
#730000
0%
b0 "
b0 ?
0B
12"
b100000 0
1'
#740000
0'
#750000
1%
b1000 ."
b1000 "
b1000 ?
1B
02"
b100001 0
1'
#760000
0'
#770000
0%
b0 "
b0 ?
0B
12"
b100010 0
1'
#780000
0'
#790000
1%
b1001 ."
b1000 "
b1000 ?
1B
02"
b100011 0
1'
#800000
0'
#810000
0%
b0 "
b0 ?
0B
12"
b100100 0
1'
#820000
0'
#830000
1%
b1010 ."
b1000 "
b1000 ?
1B
02"
b100101 0
1'
#840000
0'
#850000
0%
b0 "
b0 ?
0B
12"
b100110 0
1'
#860000
0'
#870000
1%
b1011 ."
b1000 "
b1000 ?
1B
02"
b100111 0
1'
#880000
0'
#890000
0%
b0 "
b0 ?
0B
12"
b101000 0
1'
#900000
0'
#910000
1%
b1100 ."
b1000 "
b1000 ?
1B
02"
b101001 0
1'
#920000
0'
#930000
0%
b0 "
b0 ?
0B
12"
b101010 0
1'
#940000
0'
#950000
1%
b1101 ."
b1000 "
b1000 ?
1B
02"
b101011 0
1'
#960000
0'
#970000
0%
b0 "
b0 ?
0B
12"
b101100 0
1'
#980000
0'
#990000
1%
b1110 ."
b1000 "
b1000 ?
1B
02"
b101101 0
1'
#1000000
0'
#1010000
0%
b0 "
b0 ?
0B
12"
b101110 0
1'
#1020000
0'
#1030000
1%
b1111 ."
b1000 "
b1000 ?
1B
02"
b101111 0
1'
#1040000
0'
#1050000
0%
b0 "
b0 ?
0B
12"
b110000 0
1'
#1060000
0'
#1070000
b1001 #
b1001 @
0D
1%
b11 3"
b0 ."
b1000 "
b1000 ?
1B
02"
b110001 0
1'
#1080000
0'
#1090000
0C
b0 $
b0 <
b110001000001010 (
b0 2
1+
0%
b0 "
b0 ?
0B
12"
b110010 0
1'
#1100000
0'
#1110000
1%
b1 ."
b1000 "
b1000 ?
1B
02"
b110011 0
1'
#1120000
0'
#1130000
1C
b100 $
b100 <
1*
0%
b0 "
b0 ?
0B
12"
b110100 0
1'
#1140000
0'
#1150000
1Y
1K
1%
b10 ."
b1 V
b1 s
b1 ("
b1 /"
b1000 "
b1000 ?
1B
02"
b110101 0
1'
#1160000
0'
#1170000
0%
b0 "
b0 ?
0B
12"
b110110 0
1'
#1180000
0'
#1190000
1Y
1K
1%
b11 ."
b11 V
b11 s
b11 ("
b11 /"
b1000 "
b1000 ?
1B
02"
b110111 0
1'
#1200000
0'
#1210000
0C
b0 $
b0 <
0*
0%
b0 "
b0 ?
0B
12"
b111000 0
1'
#1220000
0'
#1230000
1Y
1K
1%
b100 ."
b110 V
b110 s
b110 ("
b110 /"
b1000 "
b1000 ?
1B
02"
b111001 0
1'
#1240000
0'
#1250000
0%
b0 "
b0 ?
0B
12"
b111010 0
1'
#1260000
0'
#1270000
b1 d
b1 u
b1 5"
1Y
1K
1%
b101 ."
b1100 V
b1100 s
b1100 ("
b1100 /"
b1000 "
b1000 ?
1B
02"
b111011 0
1'
#1280000
0'
#1290000
0%
b0 "
b0 ?
0B
12"
b111100 0
1'
#1300000
0'
#1310000
b11 d
b11 u
b11 5"
1Y
1K
1%
b110 ."
b11000 V
b11000 s
b11000 ("
b11000 /"
b1000 "
b1000 ?
1B
02"
b111101 0
1'
#1320000
0'
#1330000
1C
b100 $
b100 <
1*
0%
b0 "
b0 ?
0B
12"
b111110 0
1'
#1340000
0'
#1350000
b110 d
b110 u
b110 5"
1Y
1K
1%
b111 ."
b110001 V
b110001 s
b110001 ("
b110001 /"
b1000 "
b1000 ?
1B
02"
b111111 0
1'
#1360000
0'
#1370000
0C
b0 $
b0 <
0*
0%
b0 "
b0 ?
0B
12"
b1000000 0
1'
#1380000
0'
#1390000
b100 d
b100 u
b100 5"
b1 e
b1 t
b1 4"
1Y
1K
1%
b1000 ."
b1100010 V
b1100010 s
b1100010 ("
b1100010 /"
b1000 "
b1000 ?
1B
02"
b1000001 0
1'
#1400000
0'
#1410000
0%
b0 "
b0 ?
0B
12"
b1000010 0
1'
#1420000
0'
#1430000
b0 d
b0 u
b0 5"
b11 e
b11 t
b11 4"
1Y
1K
1%
b1001 ."
b11000100 V
b11000100 s
b11000100 ("
b11000100 /"
b1000 "
b1000 ?
1B
02"
b1000011 0
1'
#1440000
0'
#1450000
0%
b0 "
b0 ?
0B
12"
b1000100 0
1'
#1460000
0'
#1470000
b1 d
b1 u
b1 5"
b110 e
b110 t
b110 4"
1Y
1K
1%
b1010 ."
b110001000 V
b110001000 s
b110001000 ("
b110001000 /"
b1000 "
b1000 ?
1B
02"
b1000101 0
1'
#1480000
0'
#1490000
0%
b0 "
b0 ?
0B
12"
b1000110 0
1'
#1500000
0'
#1510000
b1 6"
b10 d
b10 u
b10 5"
b100 e
b100 t
b100 4"
1Y
1K
1%
b1011 ."
b1100010000 V
b1100010000 s
b1100010000 ("
b1100010000 /"
b1000 "
b1000 ?
1B
02"
b1000111 0
1'
#1520000
0'
#1530000
0%
b0 "
b0 ?
0B
12"
b1001000 0
1'
#1540000
0'
#1550000
b11 6"
b100 d
b100 u
b100 5"
b0 e
b0 t
b0 4"
1Y
1K
1%
b1100 ."
b11000100000 V
b11000100000 s
b11000100000 ("
b11000100000 /"
b1000 "
b1000 ?
1B
02"
b1001001 0
1'
#1560000
0'
#1570000
1C
b100 $
b100 <
1*
0%
b0 "
b0 ?
0B
12"
b1001010 0
1'
#1580000
0'
#1590000
b110 6"
b0 d
b0 u
b0 5"
b1 e
b1 t
b1 4"
1Y
1K
1%
b1101 ."
b110001000001 V
b110001000001 s
b110001000001 ("
b110001000001 /"
b1000 "
b1000 ?
1B
02"
b1001011 0
1'
#1600000
0'
#1610000
0C
b0 $
b0 <
0*
0%
b0 "
b0 ?
0B
12"
b1001100 0
1'
#1620000
0'
#1630000
b10000010 J
b10000010 7"
1P
b10 ""
0=
b10000010 `
b10000010 k
b10000010 {
b10000010 i
b10000010 a
b10000010 f
b10000010 c
b10000010 v
1_
b1 r
b100 6"
b100 e
b100 t
b100 4"
1Y
1K
1%
b1110 ."
b1100010000010 V
b1100010000010 s
b1100010000010 ("
b1100010000010 /"
b1000 "
b1000 ?
1B
02"
b1001101 0
1'
#1640000
0'
#1650000
1C
b100 $
b100 <
1*
0%
b0 "
b0 ?
0B
12"
b1001110 0
1'
#1660000
0'
#1670000
b0 J
b0 7"
0P
b1 ""
1=
b0 `
b0 k
b0 {
b0 i
b11 b
b11 g
b11 w
b0 a
b0 f
b11 r
b0 6"
b100 e
b100 t
b100 4"
1Y
b0 c
b0 v
0_
1K
1%
b1111 ."
b11000100000101 V
b11000100000101 s
b11000100000101 ("
b11000100000101 /"
b1000 "
b1000 ?
1B
02"
b1001111 0
1'
#1680000
0'
#1690000
0C
b0 $
b0 <
0*
0%
b0 "
b0 ?
0B
12"
b1010000 0
1'
#1700000
0'
#1710000
b1010 J
b1010 7"
b0 ""
0=
b1010 `
b1010 k
b1010 {
b1010 i
b1010 a
b1010 f
b1010 c
b1010 v
1_
b110 r
b1 6"
b0 d
b0 u
b0 5"
b0 e
b0 t
b0 4"
0Y
b0 b
b0 g
b0 w
1K
1%
b100 3"
b110001000001010 V
b110001000001010 s
b110001000001010 ("
b110001000001010 /"
b1000 "
b1000 ?
1B
02"
b1010001 0
1'
#1720000
0'
#1730000
zC
b0z00 $
b0z00 <
0+
0%
1&
0B
12"
b0 3"
b1 "
b1 ?
1G
b0 0"
1R
b1010010 0
1'
#1740000
0'
#1750000
b10001 !
b10001 >
b1 \
b1 p
b1 %"
b1 N
b1 n
b1 &"
b1 '"
0R
02"
b1010011 0
b1 1
1'
#1760000
0'
#1770000
b1011 #
b1011 @
1D
0&
b0 ."
b1 3"
b110000000000000000 1"
b0 "
b0 ?
0G
b1010100 0
1'
#1780000
0'
#1790000
12"
b1010101 0
1'
#1800000
0'
#1810000
1%
b1000 "
b1000 ?
1B
02"
b1 ."
b1100000000000000000 1"
b1010110 0
1'
#1820000
0'
#1830000
0%
b0 "
b0 ?
0B
12"
b1010111 0
1'
#1840000
0'
#1850000
1%
b1000 "
b1000 ?
1B
02"
b10 ."
b11000000000000000000 1"
b1011000 0
1'
#1860000
0'
#1870000
0%
b0 "
b0 ?
0B
12"
b1011001 0
1'
#1880000
0'
#1890000
1%
b1000 "
b1000 ?
1B
02"
b11 ."
b110000000000000000000 1"
b1011010 0
1'
#1900000
0'
#1910000
0%
b0 "
b0 ?
0B
12"
b1011011 0
1'
#1920000
0'
#1930000
1%
b1000 "
b1000 ?
1B
02"
b100 ."
b1100000000000000000000 1"
b1011100 0
1'
#1940000
0'
#1950000
0%
b0 "
b0 ?
0B
12"
b1011101 0
1'
#1960000
0'
#1970000
1%
b1000 "
b1000 ?
1B
02"
b101 ."
b11000000000000000000000 1"
b1011110 0
1'
#1980000
0'
#1990000
0%
b0 "
b0 ?
0B
12"
b1011111 0
1'
#2000000
0'
#2010000
1%
1E
b1010 "
b1010 ?
1B
02"
b110 ."
b110000000000000000000000 1"
b1100000 0
1'
#2020000
0'
#2030000
0%
b10 "
b10 ?
0B
12"
b1100001 0
1'
#2040000
0'
#2050000
1%
b1010 "
b1010 ?
1B
02"
b111 ."
b100000000000000000000000 1"
b1100010 0
1'
#2060000
0'
#2070000
0%
b10 "
b10 ?
0B
12"
b1100011 0
1'
#2080000
0'
#2090000
1%
0E
b1000 "
b1000 ?
1B
02"
b10 3"
b1 1"
b0 ."
b1100100 0
1'
#2100000
0'
#2110000
0%
b0 "
b0 ?
0B
12"
b1100101 0
1'
#2120000
0'
#2130000
1%
b1000 "
b1000 ?
1B
02"
b1 ."
b10 1"
b1100110 0
1'
#2140000
0'
#2150000
0%
b0 "
b0 ?
0B
12"
b1100111 0
1'
#2160000
0'
#2170000
1%
b1000 "
b1000 ?
1B
02"
b10 ."
b100 1"
b1101000 0
1'
#2180000
0'
#2190000
0%
b0 "
b0 ?
0B
12"
b1101001 0
1'
#2200000
0'
#2210000
1%
b1000 "
b1000 ?
1B
02"
b11 ."
b1000 1"
b1101010 0
1'
#2220000
0'
#2230000
0%
b0 "
b0 ?
0B
12"
b1101011 0
1'
#2240000
0'
#2250000
1%
b1000 "
b1000 ?
1B
02"
b100 ."
b10000 1"
b1101100 0
1'
#2260000
0'
#2270000
0%
b0 "
b0 ?
0B
12"
b1101101 0
1'
#2280000
0'
#2290000
1%
b1000 "
b1000 ?
1B
02"
b101 ."
b100000 1"
b1101110 0
1'
#2300000
0'
#2310000
0%
b0 "
b0 ?
0B
12"
b1101111 0
1'
#2320000
0'
#2330000
1%
b1000 "
b1000 ?
1B
02"
b110 ."
b1000000 1"
b1110000 0
1'
#2340000
0'
#2350000
0%
b0 "
b0 ?
0B
12"
b1110001 0
1'
#2360000
0'
#2370000
1%
b1000 "
b1000 ?
1B
02"
b111 ."
b10000000 1"
b1110010 0
1'
#2380000
0'
#2390000
0%
b0 "
b0 ?
0B
12"
b1110011 0
1'
#2400000
0'
#2410000
1%
b1000 "
b1000 ?
1B
02"
b1000 ."
b100000000 1"
b1110100 0
1'
#2420000
0'
#2430000
0%
b0 "
b0 ?
0B
12"
b1110101 0
1'
#2440000
0'
#2450000
1%
b1000 "
b1000 ?
1B
02"
b1001 ."
b1000000000 1"
b1110110 0
1'
#2460000
0'
#2470000
0%
b0 "
b0 ?
0B
12"
b1110111 0
1'
#2480000
0'
#2490000
1%
b1000 "
b1000 ?
1B
02"
b1010 ."
b10000000000 1"
b1111000 0
1'
#2500000
0'
#2510000
0%
b0 "
b0 ?
0B
12"
b1111001 0
1'
#2520000
0'
#2530000
1%
b1000 "
b1000 ?
1B
02"
b1011 ."
b100000000000 1"
b1111010 0
1'
#2540000
0'
#2550000
0%
b0 "
b0 ?
0B
12"
b1111011 0
1'
#2560000
0'
#2570000
1%
b1000 "
b1000 ?
1B
02"
b1100 ."
b1000000000000 1"
b1111100 0
1'
#2580000
0'
#2590000
0%
b0 "
b0 ?
0B
12"
b1111101 0
1'
#2600000
0'
#2610000
1%
b1000 "
b1000 ?
1B
02"
b1101 ."
b10000000000000 1"
b1111110 0
1'
#2620000
0'
#2630000
0%
b0 "
b0 ?
0B
12"
b1111111 0
1'
#2640000
0'
#2650000
1%
b1000 "
b1000 ?
1B
02"
b1110 ."
b100000000000000 1"
b10000000 0
1'
#2660000
0'
#2670000
0%
b0 "
b0 ?
0B
12"
b10000001 0
1'
#2680000
0'
#2690000
1%
b1000 "
b1000 ?
1B
02"
b1111 ."
b1000000000000000 1"
b10000010 0
1'
#2700000
0'
#2710000
0%
b0 "
b0 ?
0B
12"
b10000011 0
1'
#2720000
0'
#2730000
1%
b1001 #
b1001 @
0D
b1000 "
b1000 ?
1B
02"
b11 3"
b0 ."
b10000100 0
1'
#2740000
0'
#2750000
0C
b0 $
b0 <
b110010000010100 (
b1 2
1+
0%
b0 "
b0 ?
0B
12"
b10000101 0
1'
#2760000
0'
#2770000
b1 ""
1=
b0 J
b0 7"
1]
b0 `
b0 k
b0 {
b0 i
b10000010101 \
b10000010101 p
b10000010101 %"
b10000010100 ^
b10000010100 q
b10000010100 x
b1100 [
b1100 o
b1100 y
1U
b0 a
b0 f
1%
b1100 r
b10 6"
b10 d
b10 u
b10 5"
b0 c
b0 v
0_
0K
b1000 "
b1000 ?
1B
02"
b1 ."
b1100010000010100 V
b1100010000010100 s
b1100010000010100 ("
b1100010000010100 /"
b10000110 0
1'
#2780000
0'
#2790000
1C
b100 $
b100 <
1*
0%
b0 "
b0 ?
0B
12"
b10000111 0
1'
#2800000
0'
#2810000
b1001 J
b1001 7"
b0 ""
0=
b1001 `
b1001 k
b1001 {
b1001 i
b1001 a
b1001 f
0]
b1001 c
b1001 v
1Q
1_
1%
b1000 r
b100 6"
b100 d
b100 u
b100 5"
b1 \
b1 p
b1 %"
b0 ^
b0 q
b0 x
b0 [
b0 o
b0 y
0U
b1000 "
b1000 ?
1B
02"
b10 ."
b1000100000101001 V
b1000100000101001 s
b1000100000101001 ("
b1000100000101001 /"
b10001000 0
1'
#2820000
0'
#2830000
0%
b0 "
b0 ?
0B
12"
b10001001 0
1'
#2840000
0'
#2850000
b1010011 J
b1010011 7"
b1010011 `
b1010011 k
b1010011 {
b1010011 i
1K
1Y
b1010011 a
b1010011 f
1%
b1 r
b0 6"
b0 d
b0 u
b0 5"
b0 e
b0 t
b0 4"
b1010011 c
b1010011 v
1_
0Q
b1000 "
b1000 ?
1B
02"
b11 ."
b1000001010011 V
b1000001010011 s
b1000001010011 ("
b1000001010011 /"
b10001010 0
1'
#2860000
0'
#2870000
0C
b0 $
b0 <
0*
0%
b0 "
b0 ?
0B
12"
b10001011 0
1'
#2880000
0'
#2890000
1=
b101 ""
1Z
b0 J
b0 7"
b0 `
b0 k
b0 {
1j
b11111111 i
b10 b
b10 g
b10 w
b0 a
b0 f
1%
b10 r
b100 d
b100 u
b100 5"
b10 e
b10 t
b10 4"
1Y
b0 c
b0 v
0_
1K
b1000 "
b1000 ?
1B
02"
b100 ."
b10000010100110 V
b10000010100110 s
b10000010100110 ("
b10000010100110 /"
b10001100 0
1'
#2900000
0'
#2910000
0%
b0 "
b0 ?
0B
12"
b10001101 0
1'
#2920000
0'
#2930000
0j
b0 i
b1 ""
0Z
1%
b100 r
b1 d
b1 u
b1 5"
b101 e
b101 t
b101 4"
1Y
b100 b
b100 g
b100 w
1K
b1000 "
b1000 ?
1B
02"
b101 ."
b100000101001100 V
b100000101001100 s
b100000101001100 ("
b100000101001100 /"
b10001110 0
1'
#2940000
0'
#2950000
1C
b100 $
b100 <
1*
0%
b0 "
b0 ?
0B
12"
b10001111 0
1'
#2960000
0'
#2970000
b1001 J
b1001 7"
b0 ""
0=
b1001 `
b1001 k
b1001 {
b1001 i
b1001 a
b1001 f
b1001 c
b1001 v
1Q
1_
1%
b1000 r
b1 6"
b1 d
b1 u
b1 5"
b10 e
b10 t
b10 4"
0Y
b0 b
b0 g
b0 w
0K
b1000 "
b1000 ?
1B
02"
b110 ."
b1000001010011001 V
b1000001010011001 s
b1000001010011001 ("
b1000001010011001 /"
b10010000 0
1'
#2980000
0'
#2990000
0C
b0 $
b0 <
0*
0%
b0 "
b0 ?
0B
12"
b10010001 0
1'
#3000000
0'
#3010000
b1 ""
1=
b0 J
b0 7"
b0 `
b0 k
b0 {
b0 i
1K
1Y
b0 a
b0 f
1%
b0 r
b10 6"
b110 d
b110 u
b110 5"
b100 e
b100 t
b100 4"
b0 c
b0 v
0_
0Q
b1000 "
b1000 ?
1B
02"
b111 ."
b10100110010 V
b10100110010 s
b10100110010 ("
b10100110010 /"
b10010010 0
1'
#3020000
0'
#3030000
0%
b0 "
b0 ?
0B
12"
b10010011 0
1'
#3040000
0'
#3050000
1%
b101 6"
b100 d
b100 u
b100 5"
b1 e
b1 t
b1 4"
1Y
1K
b1000 "
b1000 ?
1B
02"
b1000 ."
b101001100100 V
b101001100100 s
b101001100100 ("
b101001100100 /"
b10010100 0
1'
#3060000
0'
#3070000
0%
b0 "
b0 ?
0B
12"
b10010101 0
1'
#3080000
0'
#3090000
b11001000 J
b11001000 7"
1P
b10 ""
0=
b11001000 `
b11001000 k
b11001000 {
b11001000 i
b11001000 a
b11001000 f
b11001000 c
b11001000 v
1_
1%
b1 r
b10 6"
b0 d
b0 u
b0 5"
b10 e
b10 t
b10 4"
1Y
1K
b1000 "
b1000 ?
1B
02"
b1001 ."
b1010011001000 V
b1010011001000 s
b1010011001000 ("
b1010011001000 /"
b10010110 0
1'
#3100000
0'
#3110000
0%
b0 "
b0 ?
0B
12"
b10010111 0
1'
#3120000
0'
#3130000
1=
1Z
b0 J
b0 7"
b101 ""
0P
b0 `
b0 k
b0 {
1j
b11111111 i
b10 b
b10 g
b10 w
b0 a
b0 f
1%
b10 r
b100 6"
b10 d
b10 u
b10 5"
b110 e
b110 t
b110 4"
1Y
b0 c
b0 v
0_
1K
b1000 "
b1000 ?
1B
02"
b1010 ."
b10100110010000 V
b10100110010000 s
b10100110010000 ("
b10100110010000 /"
b10011000 0
1'
#3140000
0'
#3150000
0%
b0 "
b0 ?
0B
12"
b10011001 0
1'
