register_file_sim.vcd
$date
	Sun Jan 25 05:48:09 2026
$end
$version
	Icarus Verilog
$end
$timescale
	1ps
$end
$scope module RegisterFile_tb $end
$var wire 8 ! out2_r [7:0] $end
$var wire 8 " out1_r [7:0] $end
$var reg 3 # addr1_r [2:0] $end
$var reg 3 $ addr1_wr [2:0] $end
$var reg 3 % addr2_r [2:0] $end
$var reg 1 & clk $end
$var reg 8 ' data_wr [7:0] $end
$var reg 1 ( rst $end
$var reg 1 ) write $end
$scope module uut $end
$var wire 3 * addr1_r [2:0] $end
$var wire 3 + addr2_r [2:0] $end
$var wire 3 , addr_wr [2:0] $end
$var wire 1 & clk $end
$var wire 8 - data_wr [7:0] $end
$var wire 1 . enable $end
$var wire 1 ( rst $end
$var wire 1 ) write_en $end
$var wire 8 / out2_r [7:0] $end
$var wire 8 0 out1_r [7:0] $end
$var integer 32 1 i [31:0] $end
$upscope $end
$scope task check_results $end
$var reg 8 2 expected1 [7:0] $end
$var reg 8 3 expected2 [7:0] $end
$var reg 1600 4 msg [1600:1] $end
$upscope $end
$upscope $end
$enddefinitions $end
$comment Show the parameter values. $end
$dumpall
$end
#0
$dumpvars
bx 4
bx 3
bx 2
bx 1
bx 0
bx /
1.
bx -
bx ,
b10 +
b1 *
0)
1(
bx '
0&
b10 %
bx $
b1 #
bx "
bx !
$end
#5000
b0 !
b0 /
b0 "
b0 0
b1000 1
b1010010011001010111001101100101011101000010000001001001011011100110100101110100011010010110000101101100 4
b0 3
b0 2
1&
#6000
1)
b10101010 '
b10101010 -
b1 $
b1 ,
0(
#10000
0&
#15000
b10101010 "
b10101010 0
b100010101100011011100100110100101110100011101010111001001100101001000000101001000110001001000000011110100100000010000010100000101101000 4
b10101010 2
1&
#16000
b11 %
b11 +
b1010101 '
b1010101 -
b11 $
b11 ,
#20000
0&
#25000
b1010101 !
b1010101 /
b10011000110010101100011011101000111010101110010011001010010000001110011011010010110110101110101011011000111010001100001011011100110010101100101001000000101001000110001001011110101001000110011 4
b1010101 3
1&
#26000
b0 "
b0 0
b0 #
b0 *
b11111111 '
b11111111 -
b0 $
b0 ,
#30000
0&
#35000
b101010001100101011100110111010000100000010100100011000000100000011100100110010101110011011101000110010100100000011000010010000001111010011001010111001001101111 4
b0 2
1&
#36000
b100 #
b100 *
b10010 '
b10010 -
b100 $
b100 ,
0)
#40000
0&
#45000
b1001101011000010110100101101110011101000110100101100101011011100010000001100100011001010111001100100000011001000110111101101110011011101111111110101001011001010111001100100000001010000101011101110010011010010111010001100101001000000100010001101001011100110110000101100010011011000110010100101001 4
1&
